[
  {
    "id": 0,
    "name": "Golden Balls",
    "collections": "Accessories",
    "price": 43000,
    "image": [
      "accessories-golden-balls.jpg"
    ]
  },
  {
    "id": 1,
    "name": "Hit The Wall",
    "collections": "Accessories",
    "price": 85000,
    "image": [
      "accessories-hit-the-wall.jpg"
    ]
  },
  {
    "id": 2,
    "name": "Hurley",
    "collections": "Accessories",
    "price": 56000,
    "image": [
      "accessories-hurley.jpg"
    ]
  },
  {
    "id": 3,
    "name": "Mad Man",
    "collections": "Accessories",
    "price": 71000,
    "image": [
      "accessories-mad-man.jpg"
    ]
  },
  {
    "id": 4,
    "name": "Mad Monster",
    "collections": "Accessories",
    "price": 27000,
    "image": [
      "accessories-mad-monster.jpg"
    ]
  },
  {
    "id": 5,
    "name": "Nice",
    "collections": "Accessories",
    "price": 75000,
    "image": [
      "accessories-nice.jpg"
    ]
  },
  {
    "id": 6,
    "name": "Snorkel Pug",
    "collections": "Accessories",
    "price": 44000,
    "image": [
      "accessories-snorkel-pug.jpg"
    ]
  },
  {
    "id": 7,
    "name": "Still White",
    "collections": "Accessories",
    "price": 88000,
    "image": [
      "accessories-still-white.jpg"
    ]
  },
  {
    "id": 8,
    "name": "Strong Swimmers",
    "collections": "Accessories",
    "price": 31000,
    "image": [
      "accessories-strong-swimmers.jpg"
    ]
  },
  {
    "id": 9,
    "name": "The Beast",
    "collections": "Accessories",
    "price": 38000,
    "image": [
      "accessories-the-beast.jpg"
    ]
  },
  {
    "id": 10,
    "name": "The Beast2",
    "collections": "Accessories",
    "price": 83000,
    "image": [
      "accessories-the-beast2.jpg"
    ]
  },
  {
    "id": 11,
    "name": "White Crystal",
    "collections": "Accessories",
    "price": 25000,
    "image": [
      "accessories-white-crystal.jpg"
    ]
  },
  {
    "id": 12,
    "name": "Wod",
    "collections": "Accessories",
    "price": 47000,
    "image": [
      "accessories-wod.jpg"
    ]
  },
  {
    "id": 13,
    "name": "Blast Matrix",
    "collections": "Performance",
    "price": 16000,
    "image": [
      "performance-blast-matrix.jpg"
    ]
  },
  {
    "id": 14,
    "name": "Lightspeed",
    "collections": "Performance",
    "price": 43000,
    "image": [
      "performance-lightspeed.jpg"
    ]
  },
  {
    "id": 15,
    "name": "Night Rider",
    "collections": "Performance",
    "price": 83000,
    "image": [
      "performance-night-rider.jpg"
    ]
  },
  {
    "id": 16,
    "name": "Speed",
    "collections": "Performance",
    "price": 54000,
    "image": [
      "performance-speed.jpg"
    ]
  },
  {
    "id": 17,
    "name": "Stealth Machine",
    "collections": "Performance",
    "price": 47000,
    "image": [
      "performance-stealth-machine.jpg"
    ]
  },
  {
    "id": 18,
    "name": "Still Black",
    "collections": "Performance",
    "price": 27000,
    "image": [
      "performance-still-black.jpg"
    ]
  },
  {
    "id": 19,
    "name": "Aloe Vera",
    "collections": "Skincare",
    "price": 15000,
    "image": [
      "skincare-aloe-vera.jpg"
    ]
  },
  {
    "id": 20,
    "name": "Coconut Avocado",
    "collections": "Skincare",
    "price": 43000,
    "image": [
      "skincare-coconut-avocado.jpg"
    ]
  },
  {
    "id": 21,
    "name": "Funky Trunks Skincare Pack",
    "collections": "Skincare",
    "price": 88000,
    "image": [
      "skincare-funky-trunks-skincare-pack.jpg"
    ]
  },
  {
    "id": 22,
    "name": "Kakadu Plum Coconut",
    "collections": "Skincare",
    "price": 64000,
    "image": [
      "skincare-kakadu-plum-coconut.jpg"
    ]
  },
  {
    "id": 23,
    "name": "Blast Fusion",
    "collections": "Swimware",
    "price": 24000,
    "image": [
      "swimware-blast-fusion.jpg"
    ]
  },
  {
    "id": 24,
    "name": "Check Republic",
    "collections": "Swimware",
    "price": 15000,
    "image": [
      "swimware-check-republic.jpg"
    ]
  },
  {
    "id": 25,
    "name": "Fur Pants",
    "collections": "Swimware",
    "price": 28000,
    "image": [
      "swimware-fur-pants.jpg"
    ]
  },
  {
    "id": 26,
    "name": "Huntsman",
    "collections": "Swimware",
    "price": 46000,
    "image": [
      "swimware-huntsman.jpg"
    ]
  },
  {
    "id": 27,
    "name": "Ice Fortress",
    "collections": "Swimware",
    "price": 26000,
    "image": [
      "swimware-ice-fortress.jpg"
    ]
  },
  {
    "id": 28,
    "name": "Ol Toff",
    "collections": "Swimware",
    "price": 44000,
    "image": [
      "swimware-ol-toff.jpg"
    ]
  },
  {
    "id": 29,
    "name": "Poison Pop",
    "collections": "Swimware",
    "price": 35000,
    "image": [
      "swimware-poison-pop.jpg"
    ]
  },
  {
    "id": 30,
    "name": "Sneaky Swim",
    "collections": "Swimware",
    "price": 24000,
    "image": [
      "swimware-sneaky-swim.jpg"
    ]
  },
  {
    "id": 31,
    "name": "",
    "collections": "Tshirts",
    "price": 68000,
    "image": [
      "tshirts-.jpg"
    ]
  },
  {
    "id": 32,
    "name": "Binary Bro",
    "collections": "Tshirts",
    "price": 45000,
    "image": [
      "tshirts-binary-bro.jpg"
    ]
  },
  {
    "id": 33,
    "name": "Fat Funk",
    "collections": "Tshirts",
    "price": 47000,
    "image": [
      "tshirts-fat-funk.jpg"
    ]
  },
  {
    "id": 34,
    "name": "Goneski",
    "collections": "Tshirts",
    "price": 51000,
    "image": [
      "tshirts-goneski.jpg"
    ]
  },
  {
    "id": 35,
    "name": "Great Ball Control Grey",
    "collections": "Tshirts",
    "price": 33000,
    "image": [
      "tshirts-great-ball-control-grey.jpg"
    ]
  },
  {
    "id": 36,
    "name": "Navy Wingman",
    "collections": "Tshirts",
    "price": 56000,
    "image": [
      "tshirts-navy-wingman.jpg"
    ]
  },
  {
    "id": 37,
    "name": "Swim Bro Black",
    "collections": "Tshirts",
    "price": 12000,
    "image": [
      "tshirts-swim-bro-black.jpg"
    ]
  },
  {
    "id": 38,
    "name": "Trunk Tag",
    "collections": "Tshirts",
    "price": 27000,
    "image": [
      "tshirts-trunk-tag.jpg"
    ]
  },
  {
    "id": 39,
    "name": "Black Widow",
    "collections": "Underware",
    "price": 12000,
    "image": [
      "underware-black-widow.jpg"
    ]
  },
  {
    "id": 40,
    "name": "Still Orange",
    "collections": "Underware",
    "price": 33000,
    "image": [
      "underware-still-orange.jpg"
    ]
  },
  {
    "id": 41,
    "name": "Street Beat",
    "collections": "Underware",
    "price": 44000,
    "image": [
      "underware-street-beat.jpg"
    ]
  },
  {
    "id": 42,
    "name": "The Gun Show",
    "collections": "Underware",
    "price": 65000,
    "image": [
      "underware-the-gun-show.jpg"
    ]
  }
]